<?xml version="1.0" encoding="UTF-8" standalone="no"?>
<svg
   version="1.1"
   viewBox="0 0 16 16"
   id="svg15"
   sodipodi:docname="desk2.svg"
   inkscape:version="1.1 (c4e8f9ed74, 2021-05-24)"
   xmlns:inkscape="http://www.inkscape.org/namespaces/inkscape"
   xmlns:sodipodi="http://sodipodi.sourceforge.net/DTD/sodipodi-0.dtd"
   xmlns="http://www.w3.org/2000/svg"
   xmlns:svg="http://www.w3.org/2000/svg">
  <sodipodi:namedview
     id="namedview17"
     pagecolor="#ffffff"
     bordercolor="#666666"
     borderopacity="1.0"
     inkscape:pageshadow="2"
     inkscape:pageopacity="0.0"
     inkscape:pagecheckerboard="0"
     showgrid="false"
     inkscape:zoom="42.625"
     inkscape:cx="7.3665689"
     inkscape:cy="8.0469208"
     inkscape:window-width="1475"
     inkscape:window-height="896"
     inkscape:window-x="217"
     inkscape:window-y="75"
     inkscape:window-maximized="0"
     inkscape:current-layer="svg15" />
  <defs
     id="defs3">
    <style
       id="current-color-scheme"
       type="text/css">.ColorScheme-Text {
        color:#dedede;
      }</style>
  </defs>
  <path
     d="M 2,1 C 1.446,1 1,1.446 1,2 V 6 C 1,6.554 1.446,7 2,7 H 6 C 6.554,7 7,6.554 7,6 V 2 C 7,1.446 6.554,1 6,1 Z M 2,2 H 6 V 6 H 2 Z"
     id="path5"
     style="color:#dedede;fill:#dedede" />
  <path
     id="path7"
     style="color:#dedede;fill:#dedede"
     d="M 10 1 C 9.446 1 9 1.446 9 2 L 9 6 C 9 6.554 9.446 7 10 7 L 14 7 C 14.554 7 15 6.554 15 6 L 15 2 C 15 1.446 14.554 1 14 1 L 10 1 z " />
  <path
     d="M 2,9 C 1.446,9 1,9.446 1,10 v 4 c 0,0.554 0.446,1 1,1 h 4 c 0.554,0 1,-0.446 1,-1 V 10 C 7,9.446 6.554,9 6,9 Z m 0,1 h 4 v 4 H 2 Z"
     id="path9"
     style="color:#dedede;fill:#dedede" />
  <path
     d="M 10,9 C 9.446,9 9,9.446 9,10 v 4 c 0,0.554 0.446,1 1,1 h 4 c 0.554,0 1,-0.446 1,-1 V 10 C 15,9.446 14.554,9 14,9 Z m 0,1 h 4 v 4 h -4 z"
     id="path11"
     style="color:#dedede;fill:#dedede" />
</svg>
