/* XPM */
static char * maximize_activedown_xpm[] = {
"14 12 53 1",
" 	c #233551",
".	c #253856",
"+	c #293F5D",
"@	c #2D4565",
"#	c #314A6D",
"$	c #345075",
"%	c #38577C",
"&	c #5E748B",
"*	c #A4A5A4",
"=	c #A4A5A5",
"-	c #A5A5A4",
";	c #A5A5A5",
">	c #949493",
",	c #444444",
"'	c #73879B",
")	c #ACADAC",
"!	c #ADADAC",
"~	c #ACADAD",
"{	c #ACACAD",
"]	c #ADACAC",
"^	c #ACACAC",
"/	c #9A9B9B",
"(	c #778A9E",
"_	c #243753",
":	c #727272",
"<	c #666666",
"[	c #5B5B5B",
"}	c #7B8DA2",
"|	c #273C5A",
"1	c #C4C4C4",
"2	c #AFAFAF",
"3	c #7F91A4",
"4	c #2B415F",
"5	c #9E9E9E",
"6	c #9F9E9E",
"7	c #8D8E8D",
"8	c #8395A7",
"9	c #2D4566",
"0	c #8798AA",
"a	c #304A6D",
"b	c #BBBBBB",
"c	c #A7A7A7",
"d	c #8B9CAC",
"e	c #334F73",
"f	c #365479",
"g	c #D8D9D8",
"h	c #C1C2C1",
"i	c #3A597F",
"j	c #3D3D3D",
"k	c #3D5D85",
"l	c #9AA9B8",
"m	c #8B9CAD",
"n	c #8799AB",
"       .+@#$%&",
" **=-;=;;*;>,'",
" ))!)~{]]{^/,(",
"_:<<<<<<<<<[ }",
"|11111111112,3",
"455566555557,8",
"9))!)~{]]{^/,0",
"abbbbbbbbbbc,d",
"e11111111112,}",
"fggggggggggh,3",
"i,,,,,,,,,,j 8",
"klmnnmnmnmnnmn"};
