{
    "name": "Magic for shell",
    "groups": {
        "mode": { "fg": "solarized:base3", "bg": "solarized:base02", "attrs": ["bold"] },
        "user": { "fg": "white", "bg": "solarized:base0"},
        "cwd" : { "fg": "white", "bg": "solarized:blue"},
        "cwd:divider" : { "fg": "white", "bg": "solarized:blue"},
        "cwd:current_folder" : { "fg": "white", "bg": "black"}
    },
    "mode_translations": {
        "vicmd": {
            "groups": {
                "mode": { "fg": "solarized:base3", "bg": "solarized:blue", "attrs": ["bold"] }
            }
        }
    }
}
